﻿[
	{
        "_id":"c-05",
        "_parentId":"b-05",
        "_type":"component",
        "_component":"text",
        "_classes":"",
        "_layout":"full",
        "title":"Pengenalan Instagram",
        "displayTitle":"",
        "body":"Misi Instagram adalah untuk memperkuat hubungan melalui pengalaman bersama. Kami ingin memberi inspirasi ekspresi autentik dan menghubungkan orang melalui ekspresi visual. Orang dari seluruh dunia membuka Instagram untuk mendapatkan inspirasi. Instagram sudah menjadi tempat untuk menemukan dan membagikan minat.",
        "instruction":"",
        "_pageLevelProgress": {
            "_isEnabled": false
        }
    },
    {
      "_id":"c-06",
      "_parentId":"b-05",
      "_type":"component",
      "_component":"facebook-animationBox",
      "_classes":"",
      "title":"Pengenalan Instagram",
      "_layout":"full",
      "_resources": {
            "width":"871",
            "height":"473",
            "animation":"test1",
            "background":"course/en/animations/instagram_community/whitebackground.png",
            "hand":"course/en/animations/instagram_community/phone_animation_hand.png",
            "gridItem1":"course/en/animations/instagram_community/gridItem1.png",
            "gridItem2":"course/en/animations/instagram_community/gridItem2.png",
            "gridItem3":"course/en/animations/instagram_community/gridItem3.png",
            "gridItem4":"course/en/animations/instagram_community/gridItem4.png",
            "gridItem5":"course/en/animations/instagram_community/gridItem5.png",
            "gridItem6":"course/en/animations/instagram_community/gridItem6.png",
            "gridItem7":"course/en/animations/instagram_community/gridItem7.png",
            "gridItem8":"course/en/animations/instagram_community/gridItem8.png",
            "gridItem9":"course/en/animations/instagram_community/gridItem9.png"
       },
        "_animationCanvas":"<script  src='course/en/animations/testRun.js'></script><div><canvas id='testCanvas' width='871px' height='473px'></canvas></div>",
      "displayTitle":"",
      "_pageLevelProgress": {
            "_isEnabled": true
        }
    },
    {
        "_id":"c-10",
        "_parentId":"b-10",
        "_type":"component",
        "_component":"text",
        "_classes":"",
        "_layout":"full",
        "title":"Misi Instagram",
        "displayTitle":"Misi Instagram",
        "body":"Instagram adalah tempat ekspresi visual menginspirasi tindakan nyata.",
        "instruction":"",
        "_pageLevelProgress": {
            "_isEnabled": true
        }
    },
    {
      "_id":"c-11",
      "_parentId":"b-10",
      "_type":"component",
      "_component":"facebook-animationBox",
      "_classes":"",
      "title":"Misi dan nilai Instagram",
      "_layout":"full",
      "_resources": {
            "width":"871",
            "height":"560",
            "animation":"test3",
            "background":"course/en/animations/instagram_community/instagram_background.png",
            "icon_1":"course/en/animations/instagram_community/connect_passions.png",
            "icon_2":"course/en/animations/instagram_community/immerse_visually.png",
            "icon_3":"course/en/animations/instagram_community/spark_exploration.png",
            "title_1":"Menghubungkan Minat",
            "body_1":"Orang membuka Instagram untuk\nmenemukan dan membagikan minat mereka.",
            "title_2":"Mendalam Secara Visual",
            "body_2":"Instagram menghadirkan pengalaman berkesan melalui penyampaian cerita visual.",
            "title_3":"Memicu Eksplorasi",
            "body_3":"Orang-orang senang membuka Instagram\nuntuk menjelajah dan terhubung dengan orang-orang baru."

      },
        "_animationCanvas":"<br><br><script  src='course/en/animations/testRun3.js'></script><div><canvas id='testCanvas3' width='871px' height='473px'></canvas></div>",
      "displayTitle":"",
      "_pageLevelProgress": {
            "_isEnabled": false
      }
    },
    {
    "_id":"c-15",
    "_parentId":"b-15",
    "_type":"component",
    "_component":"media",
    "_classes":"",
    "_layout":"full",
    "title":"Apa yang membuat Instagram unik",
    "displayTitle": "Apa yang membuat Instagram unik",
    "body": "Sejak kehadiran awal Instagram, orang bertemu untuk mengambil foto dan video bersama-sama. Seiring perkembangan komunitas di seluruh dunia, begitu juga dengan hadirnya InstaMeet: orang bertemu untuk terhubung, menjelajah, dan mengapresiasi hasil kreativitas mereka.  InstaMeet diorganisir oleh anggota komunitas di seluruh dunia.<br><br>Di bawah ini merupakan tampilan di belakang layar InstaMeet yang bertempat di toko utama TOMS di Venice, California.  Komunitas Instagram berkumpul bersama untuk mengambil gambar dan berpartisipasi dalam pembersihan jalan. Peserta InstaMeet membuat film dan mengirimkannya ke Instagram untuk dibagikan.",
    "instruction": "",
    "_pageLevelProgress": {
            "_isEnabled": false
    },
    "_setCompletionOn":"inview",
    "_startLanguage": "id",
    "_useClosedCaptions":true,
    "_media": {
        "mp4": "course/en/images/01_instagram_community/TOMSInstameet_FinalCut_480p.mp4",
        "poster": "course/en/images/01_instagram_community/Toms_poster.jpeg",
		"cc": [{
			"srclang": "id",
			"src": "course/en/srt/TOMSInstameet_FinalCut_480p_id_ID.srt"
		}]
    },
    "_playerOptions": {
        "poster": "",
        "showPosterWhenEnded": false,
        "defaultVideoWidth": 480,
        "defaultVideoHeight": 270,
        "videoWidth": -1,
        "videoHeight": -1,
        "defaultAudioWidth": 400,
        "defaultAudioHeight": 30,
        "defaultSeekBackwardInterval": "(media.duration * 0.05)",
        "defaultSeekForwardInterval": "(media.duration * 0.05)",
        "audioWidth": -1,
        "audioHeight": -1,
        "startVolume": 0.8,
        "loop": false,
        "autoRewind": true,
        "enableAutosize": true,
        "alwaysShowHours": false,
        "showTimecodeFrameCount": false,
        "framesPerSecond": 25,
        "autosizeProgress" : true,
        "alwaysShowControls": false,
        "hideVideoControlsOnLoad": false,
        "clickToPlayPause": true,
        "iPadUseNativeControls": false,
        "iPhoneUseNativeControls": false,
        "AndroidUseNativeControls": false,
        "features": ["playpause","current","progress","duration","tracks","volume","fullscreen"],
        "isVideo": true,
        "enableKeyboard": true,
        "pauseOtherPlayers": true,
        "startLanguage": "id",
        "tracksText": "mejs.i18n.t('Captions/Subtitles')",
        "hideCaptionsButtonWhenEmpty": true,
        "toggleCaptionsButtonWhenOnlyOne": false,
        "slidesSelector": ""
    }
    },
    {
        "_id":"c-20",
        "_parentId":"b-20",
        "_type":"component",
        "_component":"text",
        "_classes":"",
        "_layout":"full",
        "title":"Interaksi di Instagram",
        "displayTitle":"Interaksi di Instagram",
        "body":"Saat ini, Instagram merupakan salah satu komunitas online dengan perkembangan tercepat.  Komunitas Instagram sekarang mempunyai lebih dari 700 juta pengguna aktif setiap bulannya <sup>1</sup> dengan lebih dari 400 juta Instagrammer tersebut mengunjungi aplikasi ini setiap harinya.<sup>2</sup>",
        "instruction":"",
        "_pageLevelProgress": {
        "_isEnabled": false
        }
    },
    {
      "_id":"c-21",
      "_parentId":"b-20",
      "_type":"component",
      "_component":"facebook-animationBox",
      "_classes":"",
      "title":"Interaksi di Instagram",
      "_layout":"full",
      "_resources": {
            "width":"871",
            "height":"490",
            "animation":"test2",
            "background":"course/en/animations/instagram_community/ig_growth.png",
            "template": "course/en/animations/instagram_community/ig_growth.png",
            "gridItem_1":"course/en/animations/instagram_community/gridItem_1.png",
            "gridItem_2":"course/en/animations/instagram_community/gridItem_1.png",
            "gridItem_3":"course/en/animations/instagram_community/gridItem_1.png",
            "gridItem_4":"course/en/animations/instagram_community/gridItem_1.png",
            "gridItem_5":"course/en/animations/instagram_community/gridItem_1.png",
            "gridItem_6":"course/en/animations/instagram_community/gridItem_1.png",
            "gridItem_7":"course/en/animations/instagram_community/gridItem_1.png",
            "gridItem_8":"course/en/animations/instagram_community/gridItem_1.png",
            "gridItem_9":"course/en/animations/instagram_community/gridItem_1.png",
            "gridItem_10":"course/en/animations/instagram_community/gridItem_1.png"
       },
        "_animationCanvas":"<script  src='course/en/animations/testRun2.js'></script><div><canvas id='testCanvas2' width='871px' height='473px'></canvas></div>",
      "displayTitle":"",
      "_pageLevelProgress": {
            "_isEnabled": true
        }
    },
    {
        "_id":"c-30",
        "_parentId":"b-30",
        "_type":"component",
        "_component":"co-jump",
        "_classes":"color-test",
        "_preLinkBody":"Selanjutnya, mari melihat ",
        "_linkBody":"Memulai di Instagram",
        "_postLinkBody":".",
        "_link":"#/id/co-10",
        "_graphic":"adapt/css/assets/icon_nextPage.png",
        "_pageLevelProgress": {
            "_isEnabled": false
        }
    },
    {
        "_id":"c-31",
        "_parentId":"b-30",
        "_type":"component",
        "_component":"text",
        "_classes":"",
        "_layout":"full",
        "title":"",
        "displayTitle":"",
        "body":"<hr><cite><sup>1</sup>Data Instagram, Apr 2017<br><sup>2</sup>Laporan Pendapatan Facebook Q1 2017</cite>",
        "instruction":"",
        "_pageLevelProgress": {
        "_isEnabled": false
        }
    },
    {
        "_id":"c-50",
        "_parentId":"b-50",
        "_type":"component",
        "_component":"text",
        "_classes":"",
        "_layout":"full",
        "title":"Cara membuat akun Instagram",
        "displayTitle":"Cara membuat akun Instagram",
        "body":"Untuk mulai menggunakan Instagram:<br><br><ul style='list-style-type:decimal'><li>Unduh aplikasi Instagram.<br><ul><li>Untuk iOS, unduh aplikasi ini dari App Store.</li><li>Untuk Android, unduh aplikasi ini dari Google Play Store.</li><li>Untuk Windows phone, unduh aplikasi ini dari Bursa Windows Phone.</li></ul></li><li>Setelah aplikasi terpasang di perangkat Anda, ketuk <img src='course/en/images/02_getting_started/instagram_icon.png' style='padding-top:14px;width:29px;height:29px;'> untuk membukanya.</li><li>Ketuk Daftar.  Masukkan alamat email Anda dan ketuk Berikutnya. Atau ketuk Masuk dengan Facebook untuk mendaftar dengan akun Facebook Anda.</li><li>Jika Anda mendaftar dengan email, buat nama pengguna dan kata sandi.  Masukkan informasi profil Anda, lalu ketuk Selesai.</li><li>Jika Anda mendaftar menggunakan Facebook, Anda akan diminta untuk masuk ke akun Facebook Anda jika Anda telah keluar.</li></ul><br>Catatan:  Disarankan membuat akun menggunakan aplikasi seluler Instagram, bukan di browser desktop.<br><br>Harap diperhatikan juga bahwa jika Anda mendaftar dengan email, pastikan Anda memasukkan alamat email dengan benar dan Anda memilih alamat email yang hanya dapat diakses oleh Anda. Jika Anda keluar dan lupa kata sandi, Anda harus mengakses email Anda untuk kembali ke akun Instagram Anda.",
        "instruction":"",
        "_pageLevelProgress": {
        "_isEnabled": true
        }
    },
    {
        "_id": "c-55",
        "_parentId": "b-55",
        "_classes": "",
        "_type":"component",
        "_layout": "full",
        "_component": "text",
        "title": "",
        "displayTitle": "Struktur akun Instagram",
        "body": "Dalam beberapa kasus, Anda mungkin ingin membuat beberapa akun untuk terhubung dengan pemirsa Anda di Instagram.<br><br>Klik panah pada gambar di bawah ini untuk mempelajari kapan waktu terbaik untuk menggunakan satu akun dibandingkan beberapa akun.",
        "instruction": "",
        "_pageLevelProgress": {
        "_isEnabled": false
        }
    },
    {
        "_id": "c-56",
        "_parentId": "b-55",
        "_classes": "narrative-background",
        "_type":"component",
        "_layout": "full",
        "_component": "narrative",
        "title": "Struktur akun Instagram",
        "body": "",
        "instruction": "",
        "_setCompletionOn":"inview",
        "_pageLevelProgress": {
        "_isEnabled": true
        },
        "_hasNavigationInTextArea": false,
        "_items": [
            {
                "title": "<b>Akun tunggal:</b><br>Memusatkan semua konten di bawah satu akun",
                "body": "<ul><li>Akun Instagram global tunggal membantu menjaga representasi nuansa yang konsisten. Akun tunggal menyederhanakan moderasi akun dan menjaga pengikut di bawah satu akun.</li><li>Strategi ini juga mendukung penemuan dan peningkatan skala, karena akan membantu akun ditampilkan di bagian atas pencarian.</li></ul>",
                "_graphic": {
                    "src": "course/en/images/02_getting_started/single_account.png",
                    "alt": "course/en/images/02_getting_started/single_account.png",
                    "title": ""
                },
                "strapline": "Akun tunggal"
            },
            {
                "title": "<b>Beberapa akun:</b><br>Untuk melokalkan konten atau mendukung konten sub-merek",
                "body": "<ul><li>Jika pendekatan bisnis Anda berbeda secara signifikan berdasarkan wilayah, atau merek induk Anda mendukung sub-merek, mungkin Anda ingin mempertimbangkan akun tambahan.</li><li>Kami hanya menyarankan menyiapkan beberapa akun jika Anda memiliki hal berikut: anggaran dan sumber daya untuk mendukung beberapa akun, strategi yang jelas untuk mengirimkan konten unik secara rutin, dan pesan yang dilokalkan atau pesan sub-merek yang sangat penting untuk mendorong tujuan bisnis Anda.</li></ul>",
                "_graphic": {
                    "src": "course/en/images/02_getting_started/multiple_accounts.png",
                    "alt": "course/en/images/02_getting_started/multiple_accounts.png",
                    "title": ""
                },
                "strapline": "Beberapa akun"
            }
            
        ]
    },
    {
        "_id":"c-60",
        "_parentId":"b-60",
        "_type":"component",
        "_component":"animate-message",
        "_classes":"",
        "_layout":"full",
        "title":"Membangun kehadiran organik Anda di Instagram",
        "displayTitle":"Membangun kehadiran organik Anda di Instagram",
        "body":"Sekarang, setelah Anda membuat akun Instagram, Anda dapat mulai membuat jumlah pengikut Anda. Berikut ini beberapa alasan mengapa Anda harus membuat akun Instagram organik.",
        "instruction":"",
        "titleAnimation":"transition.slideUpIn",
        "bodyAnimation":"transition.slideUpIn",
        "_animationOnView":"top",
        "backgroundColor":"#4080ff,#4080ff,#4080ff,#4080ff",
        "_pageLevelProgress": {
        "_isEnabled": true
        },
        "_items": [
            {
                "item_title": "<div style='padding-left:15px;padding-top:20px;color:#ffffff;'><b>Sampaikan Cerita Anda</b></div>",
                "body":"<div style='padding-left:15px;padding-right:15px;padding-top:20px;padding-bottom:20px;color:#ffffff;'>Setiap hari, bisnis dengan segala ukuran menyampaikan cerita visual mereka di Instagram dan — yang lebih penting lagi — orang mencari bisnis di platform ini. Dengan memiliki akun organik, Anda dapat menarik perhatian dan menjalin hubungan dari waktu ke waktu dengan orang yang tertarik pada bisnis Anda.</div>"
            },
            {
                "item_title": "<div style='padding-left:15px;padding-top:20px;color:#ffffff;'><b>Jadilah Mudah Ditemukan</b></div>",
                "body":"<div style='padding-left:15px;padding-right:15px;padding-top:20px;padding-bottom:20px;color:#ffffff;'>Iklan Instagram merupakan cara terbaik untuk menjangkau pemirsa yang penting bagi bisnis Anda. Di sisi lain, akun organik merupakan cara terbaik untuk dapat ditemukan. Dengan akun organik, orang dapat menemukan bisnis Anda ketika mereka mencari di Instagram.</div>"
            },
            {
                "item_title": "<div style='padding-left:15px;padding-top:20px;color:#ffffff;'><b>Berkomunikasi Langsung Dengan Pelanggan Anda</b></div>",
                "body":"<div style='padding-left:15px;padding-right:15px;padding-top:20px;padding-bottom:20px;color:#ffffff;'>Dengan akun organik, bisnis Anda dapat menanggapi komentar di iklan atau kiriman Anda, dan bahkan menggerakkan komunikasi ke pesan direct.</div>"
            },
            {
                "item_title": "<div style='padding-left:15px;padding-top:20px;color:#ffffff;'><b>Melengkapi Pengalaman Iklan</b></div>",
                "body":"<div style='padding-left:15px;padding-right:15px;padding-top:20px;padding-bottom:20px;color:#ffffff;'>Apabila Anda beriklan di Instagram menggunakan akun organik bisnis Anda, nama akun Anda akan dapat diklik. Dengan ini, orang dapat mengunjungi profil akun Anda, tempat mereka dapat mempelajari selengkapnya tentang bisnis Anda, melihat kiriman organik Anda, dan mengikuti akun Anda.</div>"
            }
        ]
    },
    {
        "_id":"c-61",
        "_parentId":"b-60",
        "_type":"component",
        "_component":"text",
        "_classes":"",
        "_layout":"full",
        "title":"Cara terbaik untuk mengembangkan dan memperkuat pemirsa Anda",
        "displayTitle":"",
        "body":"Cara terbaik untuk mengembangkan dan memperkuat pemirsa Anda adalah dengan membuat konten berkualitas tinggi tentang merek yang ingin dilihat oleh orang di kabar Instagram mereka. Membuat konten yang kuat juga akan meningkatkan kemungkinan akun Anda akan ditemukan oleh orang yang bukan pengikut, karena kiriman Anda dapat muncul di tab Jelajahi (yang menggunakan algoritme untuk menampilkan konten yang menarik) atau tab Berita (tempat orang-orang dapat melihat bahwa akun yang mereka ikuti telah menyukai kiriman Anda).<br><br>Anda juga dapat mengembangkan pemirsa dengan menjadikan Instagram sebagai bagian dari bisnis dan marketing sehari-hari. Misalnya:<br><ul><li>Kirimkan tanda di lokasi ritel dengan akun Instagram Anda, atau bagikan dalam komunikasi seperti email dan kartu pos</li><li>Buat kontes atau sebutkan akun Anda dalam media pers</li><li>Umumkan akun Instagram Anda di platform lain seperti Facebook atau Twitter dengan tautan ke akun Anda, atau sediakan tautan di beranda situs web Anda</li></ul>",
        "instruction":"",
        "_pageLevelProgress": {
        "_isEnabled": true
        }
    },
    {
        "_id":"c-65",
        "_parentId":"b-65",
        "_type":"component",
        "_component":"animate-message",
        "_classes":"",
        "_layout":"full",
        "title":"Cara terhubung dengan orang yang tepat di Instagram 1",
        "displayTitle":"Cara terhubung dengan orang yang tepat di Instagram",
        "body":"",
        "instruction":"",
        "titleAnimation":"transition.slideRightIn",
        "bodyAnimation":"transition.slideLeftIn",
        "backgroundColor":"#ffffff,#ffffff,#ffffff",
        "_spacing":"20px",
        "_pageLevelProgress": {
        "_isEnabled": true
        },
        "_items": [
            {
                "item_title": "<b>Pilih kualitas bukan kuantitas</b>",
                "body":"<br><img src='course/en/images/02_getting_started/quality.png' style='float:left;width:280px;height:283px;padding-right:10px;'><div style='min-height:283;'' >Instagram merupakan komunitas besar yang terdiri dari orang yang antusias. Jadi ketika menyangkut tentang pengikut, itu lebih dari sekadar permainan angka. Hindari menggunakan tagar dengan berlebihan, membuat kontes dan hadiah, atau menggunakan pihak ketiga untuk membeli pengikut. Meskipun jumlah pengikut Anda berkembang, orang tersebut berpeluang kecil menjadi pemirsa target Anda yang ideal."
            }
        ]
    },
    {
        "_id":"c-66",
        "_parentId":"b-65",
        "_type":"component",
        "_component":"animate-message",
        "_classes":"",
        "_layout":"full",
        "title":"Cara terhubung dengan orang yang tepat di Instagram 2",
        "displayTitle":"",
        "body":"",
        "instruction":"",
        "titleAnimation":"transition.slideRightIn",
        "bodyAnimation":"transition.slideLeftIn",
        "backgroundColor":"#ffffff,#ffffff,#ffffff",
        "_spacing":"20px",
        "_pageLevelProgress": {
        "_isEnabled": true
        },
        "_items": [
        {
            "item_title": "<br><br><b>Fokus pada tujuan Anda</b>",
            "body":"<br><img src='course/en/images/02_getting_started/bridestory_apr2016.png' style='float:right;padding-right:10px; width:280px;height:283px;padding-left:10px;'>Jangan jadikan upaya mengumpulkan pengikut sebagai tujuan utama bisnis Anda.  Namun, Anda dapat memanfaatkan Instagram untuk mencapai tujuan tertentu, dapat diukur, dan dapat ditindaklanjuti.<br><ul><li>Fokuskan pada menginspirasi orang untuk melihat bisnis Anda secara berbeda dan mengambil tindakan pada produk, aplikasi, atau layanan Anda.  Terhubunglah dengan komunitas Anda untuk mendorong hasil nyata dan dapat diukur.</li><li>Jika jangkauan adalah tujuan utama bisnis Anda, kami sarankan memanfaatkan Instagram untuk menjangkau semua pelanggan Anda, bukan hanya pengikut Anda.</li><li>Mendapatkan lebih banyak pengikut bukanlah tujuan bisnis yang sesungguhnya. Karena komunitas Instagram membuat lebih banyak konten dan karena orang mengikuti lebih banyak merek, pangsa suara bisnis Anda akan berubah dari waktu ke waktu.</li><li>Ingat bahwa lebih banyak pengikut bukan berarti Anda menjangkau pemirsa target Anda. Gunakan alat penargetan baru Instagram untuk memastikan jangkauan yang paling akurat.</li></ul>"
            }
        ]
    },
    {
        "_id":"c-67",
        "_parentId":"b-65",
        "_type":"component",
        "_component":"animate-message",
        "_classes":"",
        "_layout":"full",
        "title":"Cara terhubung dengan orang yang tepat di Instagram 3",
        "displayTitle":"",
        "body":"",
        "instruction":"",
        "titleAnimation":"transition.slideRightIn",
        "bodyAnimation":"transition.slideLeftIn",
        "backgroundColor":"#ffffff,#ffffff,#ffffff",
        "_spacing":"20px",
        "_pageLevelProgress": {
        "_isEnabled": true
        },
        "_items": [
            {
                "item_title": "<b>Jadilah autentik</b>",
                "body":"<br><img src='course/en/images/02_getting_started/authenticity.png' style='float:left;width:280px;height:283px;padding-right:10px;'>Mendapatkan pengikut yang interaktif dimulai dari akun Anda. Bagikan materi iklan yang menggambarkan kepribadian unik merek Anda dan tarik perhatian orang yang mempunyai selera yang sama. Untuk inspirasi, cari, ikuti, dan berinteraksilah dengan akun relevan lain melalui tab Cari &amp; Jelajahi. Anda juga dapat memperoleh inspirasi dengan mengikuti blog Instagram."
            }
        ]
    },
    {
        "_id":"c-70",
        "_parentId":"b-70",
        "_type":"component",
        "_component":"co-jump",
        "_classes":"color-test",
        "_autoComplete":true,
        "_preLinkBody":"Klik tombol di bawah untuk menyelesaikan kursus ini. Catatan: <a href='#'>klik di sini</a> untuk memastikan bahwa Anda sudah menyelesaikan masing-masing modul.<br>",
        "_linkBody":"<div style = 'text-align:center;padding:8px;'><button class='buttons-action'><b>SAYA SUDAH MENYELESAIKAN KURSUS INI</b></button></div><br> ",
        "_postLinkBody":"",
        "_link":"",
        "_pageLevelProgress": {
            "_isEnabled": false
        }
    }
	
]
