﻿[
	{
		"_id": "co-05",
		"_parentId": "course",
		"_type": "page",
		"_classes": "",
		"title": "Komunitas Instagram",
		"displayTitle": "Komunitas Instagram",
		"pageBody": " ",
		"body": "Komunitas Instagram merupakan perpaduan antara orang dan bisnis dari seluruh dunia yang berkumpul untuk membagikan minatnya dan untuk mendapatkan inspirasi.",
		"_graphic": {
			"src": "course/en/images/contentObjects/gene_paek5.png",
			"alt": "pengenalan gambar instagram."
		},
		"linkText": "Lihat",
		"durationLabel": "Durasi:",
		"duration": "2 menit",
		"_pageLevelProgress": {
			"_isEnabled": true
		}
	},
	{
		"_id": "co-10",
		"_parentId": "course",
		"_type": "page",
		"_classes": "",
		"title": "Memulai di Instagram",
		"displayTitle": "Memulai di Instagram",
		"pageBody": " ",
		"body": "Berikut ini adalah beberapa pertanyaan dan praktik terbaik untuk dipertimbangkan saat Anda memulai di Instagram.",
		"_graphic": {
			"src": "course/en/images/contentObjects/julianaconstantino.png",
			"alt": "memulai gambar instagram"
		},
		"linkText": "Lihat",
		"durationLabel": "Durasi:",
		"duration": "2 menit",
		"_pageLevelProgress": {
			"_isEnabled": true
		}
	}
]
